{
	"foo": "ENC[AES256_GCM,data:TbMZ,iv:whYFps4eAYVNpnQFA74ubgrG/0AmBVvpqs08flSyMww=,tag:h1BlWWjGsTtjGN8+Mwi8Xg==,type:str]",
	"sops": {
		"kms": null,
		"gcp_kms": null,
		"azure_kv": null,
		"hc_vault": null,
		"age": [
			{
				"recipient": "age13u8jwjltnqukl9udl2vsj0l89ydq2qf32sfzfncghgf7lc36c50qnfn9ua",
				"enc": "-----BEGIN AGE ENCRYPTED FILE-----\nYWdlLWVuY3J5cHRpb24ub3JnL3YxCi0+IFgyNTUxOSBCK0dJdVJTSmI2UElHeDE4\nemoyVjZ1ZkRpL0ZmZnREaDBFeFdOcmh6YkVFCkRNWEdVVGE2SEhKRTZPYkdrOU12\nWGMvS1JXUVlEN09HZ0tnRkxtbVYxaEkKLS0tIE94TVdyVHJUQ29OOVFVZi9iSU1O\naXcxQWpZekMybEd6MjNBQ3QyUTJTMmMKrEOW3UmqsV3zGASocwWtJr7rbpqzdZ8J\nmMZHYhPo/K9neY1krP6FJBm8WS+uj0+2kQkr0NL4o14JZ2H6PCJdBw==\n-----END AGE ENCRYPTED FILE-----\n"
			}
		],
		"lastmodified": "2022-07-06T13:20:58Z",
		"mac": "ENC[AES256_GCM,data:kQ4iOTiKBjIBiRdZyPXTaPp4S2ML2DwRROr3poELkXJWdaUAgxm/X3kbYTUcYVL5SBLRblu24SXYx+Lo53S7JuGaV6bFZrjS6zKPSMcz4/Fr8I1yOVgtxp9PlOt8hzvexJgPrHT/aJvDDqafojHGs5SODoFnJPuel0LClhT7cks=,iv:0F8Cs0Mkaf2l0bwTO01n+CKUzCKrtP/F8ESEtNOt7BM=,tag:XVSiRMXwpiafgLFFINjmZg==,type:str]",
		"pgp": null,
		"unencrypted_suffix": "_unencrypted",
		"version": "3.7.3"
	}
}
